{
  "tasks": [
    {
      "id": "1",
      "text": "Doctors Appointment",
      "day": "March 5th at 2:30pm",
      "reminder": false
    },
    {
      "id": "2",
      "text": "Meeting with boss",
      "day": "March 6th at 1:30pm",
      "reminder": false
    },
    {
      "text": "Food shopping",
      "day": "March 7th at 2.00pm",
      "reminder": false,
      "id": "kH3LgIn"
    },
    {
      "text": "test",
      "day": "d",
      "reminder": true,
      "id": "D9L4MnT"
    }
  ]
}